^D:\MY_PROJECTS\C++\INLINE2D\INLINE2D_EXAMPLEPROJECT\INLINE2D_EXAMPLEPROJECT\GAME.CPP
/c /ZI /nologo /W3 /WX- /sdl /Od /Oy- /D _MBCS /Gm /EHsc /RTC1 /MDd /GS /fp:precise /Zc:wchar_t /Zc:forScope /Zc:inline /Fo"ANDROID\\" /Fd"ANDROID\VC140.PDB" /Gd /TP /analyze- D:\MY_PROJECTS\C++\INLINE2D\INLINE2D_EXAMPLEPROJECT\INLINE2D_EXAMPLEPROJECT\GAME.CPP
^D:\MY_PROJECTS\C++\INLINE2D\INLINE2D_EXAMPLEPROJECT\INLINE2D_EXAMPLEPROJECT\MAIN.CPP
/c /ZI /nologo /W3 /WX- /sdl /Od /Oy- /D _MBCS /Gm /EHsc /RTC1 /MDd /GS /fp:precise /Zc:wchar_t /Zc:forScope /Zc:inline /Fo"ANDROID\\" /Fd"ANDROID\VC140.PDB" /Gd /TP /analyze- D:\MY_PROJECTS\C++\INLINE2D\INLINE2D_EXAMPLEPROJECT\INLINE2D_EXAMPLEPROJECT\MAIN.CPP
