^D:\MY_PROJECTS\C++\INLINE2D\INLINE2D_EXAMPLEPROJECT\INLINE2D_EXAMPLEPROJECT\GAME.CPP|D:\MY_PROJECTS\C++\INLINE2D\INLINE2D_EXAMPLEPROJECT\INLINE2D_EXAMPLEPROJECT\MAIN.CPP
D:\MY_PROJECTS\C++\INLINE2D\INLINE2D_EXAMPLEPROJECT\INLINE2D_EXAMPLEPROJECT\ANDROID\VC140.PDB
D:\MY_PROJECTS\C++\INLINE2D\INLINE2D_EXAMPLEPROJECT\INLINE2D_EXAMPLEPROJECT\ANDROID\VC140.IDB
D:\MY_PROJECTS\C++\INLINE2D\INLINE2D_EXAMPLEPROJECT\INLINE2D_EXAMPLEPROJECT\ANDROID\GAME.OBJ
D:\MY_PROJECTS\C++\INLINE2D\INLINE2D_EXAMPLEPROJECT\INLINE2D_EXAMPLEPROJECT\ANDROID\MAIN.OBJ
^D:\MY_PROJECTS\C++\INLINE2D\INLINE2D_EXAMPLEPROJECT\INLINE2D_EXAMPLEPROJECT\GAME.CPP
D:\MY_PROJECTS\C++\INLINE2D\INLINE2D_EXAMPLEPROJECT\INLINE2D_EXAMPLEPROJECT\ANDROID\VC140.PDB
^D:\MY_PROJECTS\C++\INLINE2D\INLINE2D_EXAMPLEPROJECT\INLINE2D_EXAMPLEPROJECT\MAIN.CPP
D:\MY_PROJECTS\C++\INLINE2D\INLINE2D_EXAMPLEPROJECT\INLINE2D_EXAMPLEPROJECT\ANDROID\VC140.PDB
