^D:\MY_PROJECTS\C++\INLINE2D\INLINE2D_EXAMPLEPROJECT\INLINE2D_EXAMPLEPROJECT\ANDROID\GAME.OBJ|D:\MY_PROJECTS\C++\INLINE2D\INLINE2D_EXAMPLEPROJECT\INLINE2D_EXAMPLEPROJECT\ANDROID\MAIN.OBJ
D:\MY_PROJECTS\C++\INLINE2D\INLINE2D_EXAMPLEPROJECT\DEBUG\INLINE2D_EXAMPLEPROJECT.ILK
D:\MY_PROJECTS\C++\INLINE2D\INLINE2D_EXAMPLEPROJECT\DEBUG\INLINE2D_EXAMPLEPROJECT.EXE
D:\MY_PROJECTS\C++\INLINE2D\INLINE2D_EXAMPLEPROJECT\DEBUG\INLINE2D_EXAMPLEPROJECT.PDB
